<?xml version="1.0" standalone="no"?>
<svg viewBox="0 0 200 200" xmlns="http://www.w3.org/2000/svg">
  <path fill="#24A148" d="M57.9,-36.3C70.3,-30.7,72.2,-6.9,66.3,13.6C60.4,34,46.6,51.1,28.3,60.6C10.1,70.1,-12.7,71.9,-24.5,62C-36.2,52,-36.9,30.3,-41.3,9.7C-45.8,-10.8,-54,-30.2,-47.7,-34.5C-41.5,-38.7,-20.7,-27.8,1,-28.6C22.8,-29.4,45.5,-41.9,57.9,-36.3Z" transform="translate(100 100)" />
</svg>
